{ "height":91,
 "infinite":false,
 "layers":[
        {
         "data":[668, 668, 668, 668, 668, 668, 668, 668, 668, 592, 668, 668, 668, 668, 668, 668, 668, 668, 668, 592, 668, 668, 668, 668, 668, 668, 668, 668, 668, 592, 668, 668, 668, 668, 668, 668, 668, 668, 668, 592, 668, 668, 668, 668, 668, 668, 668, 668, 668, 592, 668, 668, 668, 668, 668, 668, 668, 668, 668, 592, 668, 668, 668, 668, 668, 668, 668, 668, 668, 592, 668, 668, 668, 668, 668, 668, 668, 668, 668, 592, 668, 668, 668, 668, 668, 668, 668, 668, 668, 717, 665, 665, 665, 665, 665, 665, 665, 721, 592, 717, 665, 665, 665, 665, 665, 665, 665, 721, 592, 717, 665, 665, 665, 665, 665, 665, 665, 721, 592, 717, 665, 665, 665, 665, 665, 665, 665, 721, 592, 717, 665, 665, 665, 665, 665, 665, 665, 721, 592, 717, 665, 665, 665, 665, 665, 665, 665, 721, 592, 717, 665, 665, 665, 665, 665, 665, 665, 721, 592, 717, 665, 665, 665, 665, 665, 665, 665, 721, 592, 717, 665, 665, 665, 665, 665, 665, 665, 721, 670, 707, 707, 707, 707, 707, 707, 707, 632, 592, 670, 707, 707, 707, 707, 707, 707, 707, 632, 592, 670, 707, 707, 707, 707, 707, 707, 707, 632, 592, 670, 707, 707, 707, 707, 707, 707, 707, 632, 592, 670, 707, 707, 707, 707, 707, 707, 707, 632, 592, 670, 707, 707, 707, 707, 707, 707, 707, 632, 592, 670, 707, 707, 707, 707, 707, 707, 707, 632, 592, 670, 707, 707, 707, 707, 707, 707, 707, 632, 592, 670, 707, 707, 707, 707, 707, 707, 707, 632, 670, 94, 94, 94, 94, 94, 94, 94, 632, 592, 670, 203, 203, 203, 203, 203, 203, 203, 632, 592, 670, 203, 203, 203, 203, 203, 203, 203, 632, 592, 670, 203, 203, 203, 203, 203, 203, 203, 632, 592, 670, 203, 203, 203, 203, 203, 203, 203, 632, 592, 670, 203, 203, 203, 203, 203, 203, 203, 632, 592, 670, 203, 203, 203, 203, 203, 203, 203, 632, 592, 670, 203, 203, 203, 203, 203, 203, 203, 632, 592, 670, 94, 94, 94, 94, 94, 94, 94, 632, 670, 94, 94, 94, 94, 94, 94, 94, 632, 592, 670, 203, 203, 203, 203, 203, 203, 203, 632, 592, 670, 203, 203, 203, 203, 203, 203, 203, 632, 592, 670, 203, 203, 203, 203, 203, 203, 203, 632, 592, 670, 203, 203, 203, 203, 203, 203, 203, 632, 592, 670, 203, 203, 203, 203, 203, 203, 203, 632, 592, 670, 203, 203, 203, 203, 203, 203, 203, 632, 592, 670, 203, 203, 203, 203, 203, 203, 203, 632, 592, 670, 94, 94, 94, 94, 94, 94, 94, 632, 670, 94, 94, 94, 94, 94, 94, 94, 632, 592, 670, 203, 203, 203, 203, 203, 203, 203, 632, 592, 670, 203, 203, 203, 203, 203, 203, 203, 632, 592, 670, 203, 203, 203, 203, 203, 203, 203, 632, 592, 670, 203, 203, 203, 203, 203, 203, 203, 632, 592, 670, 203, 203, 203, 203, 203, 203, 203, 632, 592, 670, 203, 203, 203, 203, 203, 203, 203, 632, 592, 670, 203, 203, 203, 203, 203, 203, 203, 632, 592, 670, 94, 94, 94, 94, 94, 94, 94, 632, 670, 94, 94, 94, 94, 94, 94, 94, 675, 680, 676, 203, 203, 203, 203, 203, 203, 203, 675, 680, 676, 203, 203, 203, 203, 203, 203, 203, 675, 680, 676, 203, 203, 203, 203, 203, 203, 203, 675, 680, 676, 203, 203, 203, 203, 203, 203, 203, 675, 680, 676, 203, 203, 203, 203, 203, 203, 203, 675, 680, 676, 203, 203, 203, 203, 203, 203, 203, 675, 680, 676, 203, 203, 203, 203, 203, 203, 203, 675, 680, 676, 94, 94, 94, 94, 94, 94, 94, 632, 670, 94, 94, 94, 94, 94, 94, 94, 632, 592, 670, 203, 203, 203, 203, 203, 203, 203, 632, 592, 670, 203, 203, 203, 203, 203, 203, 203, 632, 592, 670, 203, 203, 203, 203, 203, 203, 203, 632, 592, 670, 203, 203, 203, 203, 203, 203, 203, 632, 592, 670, 203, 203, 203, 203, 203, 203, 203, 632, 592, 670, 203, 203, 203, 203, 203, 203, 203, 632, 592, 670, 203, 203, 203, 203, 203, 203, 203, 632, 592, 670, 94, 94, 94, 94, 94, 94, 94, 632, 670, 94, 94, 94, 94, 94, 94, 94, 632, 592, 670, 203, 203, 203, 203, 203, 203, 203, 632, 592, 670, 203, 203, 203, 203, 203, 203, 203, 632, 592, 670, 203, 203, 203, 203, 203, 203, 203, 632, 592, 670, 203, 203, 203, 203, 203, 203, 203, 632, 592, 670, 203, 203, 203, 203, 203, 203, 203, 632, 592, 670, 203, 203, 203, 203, 203, 203, 203, 632, 592, 670, 203, 203, 203, 203, 203, 203, 203, 632, 592, 670, 94, 94, 94, 94, 94, 94, 94, 632, 670, 94, 94, 94, 94, 94, 94, 94, 632, 592, 670, 203, 203, 203, 203, 203, 203, 203, 632, 592, 670, 203, 203, 203, 203, 203, 203, 203, 632, 592, 670, 203, 203, 203, 203, 203, 203, 203, 632, 592, 670, 203, 203, 203, 203, 203, 203, 203, 632, 592, 670, 203, 203, 203, 203, 203, 203, 203, 632, 592, 670, 203, 203, 203, 203, 203, 203, 203, 632, 592, 670, 203, 203, 203, 203, 203, 203, 203, 632, 592, 670, 94, 94, 94, 94, 94, 94, 94, 632, 668, 668, 668, 668, 680, 668, 668, 668, 668, 592, 668, 668, 668, 668, 680, 668, 668, 668, 668, 592, 668, 668, 668, 668, 680, 668, 668, 668, 668, 592, 668, 668, 668, 668, 680, 668, 668, 668, 668, 592, 668, 668, 668, 668, 680, 668, 668, 668, 668, 592, 668, 668, 668, 668, 680, 668, 668, 668, 668, 592, 668, 668, 668, 668, 680, 668, 668, 668, 668, 592, 668, 668, 668, 668, 680, 668, 668, 668, 668, 592, 668, 668, 668, 668, 680, 668, 668, 668, 668, 717, 665, 665, 672, 673, 674, 665, 665, 721, 592, 717, 665, 665, 672, 673, 674, 665, 665, 721, 592, 717, 665, 665, 672, 673, 674, 665, 665, 721, 592, 717, 665, 665, 672, 673, 674, 665, 665, 721, 592, 717, 665, 665, 672, 673, 674, 665, 665, 721, 592, 717, 665, 665, 672, 673, 674, 665, 665, 721, 592, 717, 665, 665, 672, 673, 674, 665, 665, 721, 592, 717, 665, 665, 672, 673, 674, 665, 665, 721, 592, 717, 665, 665, 672, 673, 674, 665, 665, 721, 670, 707, 707, 711, 712, 713, 707, 707, 632, 592, 670, 707, 707, 711, 712, 713, 707, 707, 632, 592, 670, 707, 707, 711, 712, 713, 707, 707, 632, 592, 670, 707, 707, 711, 712, 713, 707, 707, 632, 592, 670, 707, 707, 711, 712, 713, 707, 707, 632, 592, 670, 707, 707, 711, 712, 713, 707, 707, 632, 592, 670, 707, 707, 711, 712, 713, 707, 707, 632, 592, 670, 707, 707, 711, 712, 713, 707, 707, 632, 592, 670, 707, 707, 711, 712, 713, 707, 707, 632, 670, 203, 203, 203, 203, 203, 203, 203, 632, 592, 670, 203, 203, 203, 203, 203, 203, 203, 632, 592, 670, 203, 203, 203, 203, 203, 203, 203, 632, 592, 670, 593, 593, 593, 593, 593, 593, 593, 632, 592, 670, 593, 593, 593, 593, 593, 593, 593, 632, 592, 670, 593, 593, 593, 593, 593, 593, 593, 632, 592, 670, 203, 203, 203, 203, 203, 203, 203, 632, 592, 670, 203, 203, 203, 203, 203, 203, 203, 632, 592, 670, 203, 203, 203, 203, 203, 203, 203, 632, 670, 203, 203, 203, 203, 203, 203, 203, 632, 592, 670, 203, 203, 203, 203, 203, 203, 203, 632, 592, 670, 203, 203, 203, 203, 203, 203, 203, 632, 592, 670, 593, 593, 593, 593, 593, 593, 593, 632, 592, 670, 593, 593, 593, 593, 593, 593, 593, 632, 592, 670, 593, 593, 593, 593, 593, 593, 593, 632, 592, 670, 203, 203, 203, 203, 203, 203, 203, 632, 592, 670, 203, 203, 203, 203, 203, 203, 203, 632, 592, 670, 203, 203, 203, 203, 203, 203, 203, 632, 670, 203, 203, 203, 203, 203, 203, 203, 632, 592, 670, 203, 203, 203, 203, 203, 203, 203, 632, 592, 670, 203, 203, 203, 203, 203, 203, 203, 632, 592, 670, 593, 593, 593, 593, 593, 593, 593, 632, 592, 670, 593, 593, 593, 593, 593, 593, 593, 632, 592, 670, 593, 593, 593, 593, 593, 593, 593, 632, 592, 670, 203, 203, 203, 203, 203, 203, 203, 632, 592, 670, 203, 203, 203, 203, 203, 203, 203, 632, 592, 670, 203, 203, 203, 203, 203, 203, 203, 632, 670, 203, 203, 203, 203, 203, 203, 203, 675, 680, 676, 203, 203, 203, 203, 203, 203, 203, 675, 680, 676, 203, 203, 203, 203, 203, 203, 203, 675, 680, 676, 593, 593, 593, 593, 593, 593, 593, 675, 680, 676, 593, 593, 593, 593, 593, 593, 593, 675, 680, 676, 593, 593, 593, 593, 593, 593, 593, 675, 680, 676, 203, 203, 203, 203, 203, 203, 203, 675, 680, 676, 203, 203, 203, 203, 203, 203, 203, 675, 680, 676, 203, 203, 203, 203, 203, 203, 203, 632, 670, 203, 203, 203, 203, 203, 203, 203, 632, 592, 670, 203, 203, 203, 203, 203, 203, 203, 632, 592, 670, 203, 203, 203, 203, 203, 203, 203, 632, 592, 670, 593, 593, 593, 593, 593, 593, 593, 632, 592, 670, 593, 593, 593, 593, 593, 593, 593, 632, 592, 670, 593, 593, 593, 593, 593, 593, 593, 632, 592, 670, 203, 203, 203, 203, 203, 203, 203, 632, 592, 670, 203, 203, 203, 203, 203, 203, 203, 632, 592, 670, 203, 203, 203, 203, 203, 203, 203, 632, 670, 203, 203, 203, 203, 203, 203, 203, 632, 592, 670, 203, 203, 203, 203, 203, 203, 203, 632, 592, 670, 203, 203, 203, 203, 203, 203, 203, 632, 592, 670, 593, 593, 593, 593, 593, 593, 593, 632, 592, 670, 593, 593, 593, 593, 593, 593, 593, 632, 592, 670, 593, 593, 593, 593, 593, 593, 593, 632, 592, 670, 203, 203, 203, 203, 203, 203, 203, 632, 592, 670, 203, 203, 203, 203, 203, 203, 203, 632, 592, 670, 203, 203, 203, 203, 203, 203, 203, 632, 670, 203, 203, 203, 203, 203, 203, 203, 632, 592, 670, 203, 203, 203, 203, 203, 203, 203, 632, 592, 670, 203, 203, 203, 203, 203, 203, 203, 632, 592, 670, 593, 593, 593, 593, 593, 593, 593, 632, 592, 670, 593, 593, 593, 593, 593, 593, 593, 632, 592, 670, 593, 593, 593, 593, 593, 593, 593, 632, 592, 670, 203, 203, 203, 203, 203, 203, 203, 632, 592, 670, 203, 203, 203, 203, 203, 203, 203, 632, 592, 670, 203, 203, 203, 203, 203, 203, 203, 632, 668, 668, 668, 668, 680, 668, 668, 668, 668, 592, 668, 668, 668, 668, 680, 668, 668, 668, 668, 592, 668, 668, 668, 668, 680, 668, 668, 668, 668, 592, 668, 668, 668, 668, 680, 668, 668, 668, 668, 592, 668, 668, 668, 668, 680, 668, 668, 668, 668, 592, 668, 668, 668, 668, 680, 668, 668, 668, 668, 592, 668, 668, 668, 668, 680, 668, 668, 668, 668, 592, 668, 668, 668, 668, 680, 668, 668, 668, 668, 592, 668, 668, 668, 668, 680, 668, 668, 668, 668, 717, 665, 665, 672, 673, 674, 665, 665, 721, 592, 717, 665, 665, 672, 673, 674, 665, 665, 721, 592, 717, 665, 665, 672, 673, 674, 665, 665, 721, 592, 717, 665, 665, 672, 673, 674, 665, 665, 721, 592, 717, 665, 665, 672, 673, 674, 665, 665, 721, 592, 717, 665, 665, 672, 673, 674, 665, 665, 721, 592, 717, 665, 665, 672, 673, 674, 665, 665, 721, 592, 717, 665, 665, 672, 673, 674, 665, 665, 721, 592, 717, 665, 665, 672, 673, 674, 665, 665, 721, 670, 707, 707, 711, 712, 713, 707, 707, 632, 592, 670, 707, 707, 711, 712, 713, 707, 707, 632, 592, 670, 707, 707, 711, 712, 713, 707, 707, 632, 592, 670, 707, 707, 711, 712, 713, 707, 707, 632, 592, 670, 707, 707, 711, 712, 713, 707, 707, 632, 592, 670, 707, 707, 711, 712, 713, 707, 707, 632, 592, 670, 707, 707, 711, 712, 713, 707, 707, 632, 592, 670, 707, 707, 711, 712, 713, 707, 707, 632, 592, 670, 707, 707, 711, 712, 713, 707, 707, 632, 670, 203, 203, 203, 203, 203, 203, 203, 632, 592, 670, 203, 203, 203, 203, 203, 203, 203, 632, 592, 670, 593, 593, 593, 593, 593, 593, 593, 632, 592, 670, 593, 593, 593, 593, 593, 593, 593, 632, 592, 670, 593, 593, 593, 593, 593, 593, 593, 632, 592, 670, 593, 593, 593, 593, 593, 593, 593, 632, 592, 670, 593, 593, 593, 593, 593, 593, 593, 632, 592, 670, 203, 203, 203, 203, 203, 203, 203, 632, 592, 670, 203, 203, 203, 203, 203, 203, 203, 632, 670, 203, 203, 203, 203, 203, 203, 203, 632, 592, 670, 203, 203, 203, 203, 203, 203, 203, 632, 592, 670, 593, 593, 593, 593, 593, 593, 593, 632, 592, 670, 593, 593, 593, 593, 593, 593, 593, 632, 592, 670, 593, 593, 593, 593, 593, 593, 593, 632, 592, 670, 593, 593, 593, 593, 593, 593, 593, 632, 592, 670, 593, 593, 593, 593, 593, 593, 593, 632, 592, 670, 203, 203, 203, 203, 203, 203, 203, 632, 592, 670, 203, 203, 203, 203, 203, 203, 203, 632, 670, 203, 203, 203, 203, 203, 203, 203, 632, 592, 670, 203, 203, 203, 203, 203, 203, 203, 632, 592, 670, 593, 593, 593, 593, 593, 593, 593, 632, 592, 670, 593, 593, 593, 593, 593, 593, 593, 632, 592, 670, 593, 593, 593, 593, 593, 593, 593, 632, 592, 670, 593, 593, 593, 593, 593, 593, 593, 632, 592, 670, 593, 593, 593, 593, 593, 593, 593, 632, 592, 670, 203, 203, 203, 203, 203, 203, 203, 632, 592, 670, 203, 203, 203, 203, 203, 203, 203, 632, 670, 203, 203, 203, 203, 203, 203, 203, 675, 680, 676, 203, 203, 203, 203, 203, 203, 203, 675, 680, 676, 593, 593, 593, 593, 593, 593, 593, 675, 680, 676, 593, 593, 593, 593, 593, 593, 593, 675, 680, 676, 593, 593, 593, 593, 593, 593, 593, 675, 680, 676, 593, 593, 593, 593, 593, 593, 593, 675, 680, 676, 593, 593, 593, 593, 593, 593, 593, 675, 680, 676, 203, 203, 203, 203, 203, 203, 203, 675, 680, 676, 203, 203, 203, 203, 203, 203, 203, 632, 670, 203, 203, 203, 203, 203, 203, 203, 632, 592, 670, 203, 203, 203, 203, 203, 203, 203, 632, 592, 670, 593, 593, 593, 593, 593, 593, 593, 632, 592, 670, 593, 593, 593, 593, 593, 593, 593, 632, 592, 670, 593, 593, 593, 593, 593, 593, 593, 632, 592, 670, 593, 593, 593, 593, 593, 593, 593, 632, 592, 670, 593, 593, 593, 593, 593, 593, 593, 632, 592, 670, 203, 203, 203, 203, 203, 203, 203, 632, 592, 670, 203, 203, 203, 203, 203, 203, 203, 632, 670, 203, 203, 203, 203, 203, 203, 203, 632, 592, 670, 203, 203, 203, 203, 203, 203, 203, 632, 592, 670, 593, 593, 593, 593, 593, 593, 593, 632, 592, 670, 593, 593, 593, 593, 593, 593, 593, 632, 592, 670, 593, 593, 593, 593, 593, 593, 593, 632, 592, 670, 593, 593, 593, 593, 593, 593, 593, 632, 592, 670, 593, 593, 593, 593, 593, 593, 593, 632, 592, 670, 203, 203, 203, 203, 203, 203, 203, 632, 592, 670, 203, 203, 203, 203, 203, 203, 203, 632, 670, 203, 203, 203, 203, 203, 203, 203, 632, 592, 670, 203, 203, 203, 203, 203, 203, 203, 632, 592, 670, 593, 593, 593, 593, 593, 593, 593, 632, 592, 670, 593, 593, 593, 593, 593, 593, 593, 632, 592, 670, 593, 593, 593, 593, 593, 593, 593, 632, 592, 670, 593, 593, 593, 593, 593, 593, 593, 632, 592, 670, 593, 593, 593, 593, 593, 593, 593, 632, 592, 670, 203, 203, 203, 203, 203, 203, 203, 632, 592, 670, 203, 203, 203, 203, 203, 203, 203, 632, 717, 668, 668, 668, 680, 668, 668, 668, 668, 592, 668, 668, 668, 668, 680, 668, 668, 668, 668, 592, 668, 668, 668, 668, 680, 668, 668, 668, 668, 592, 668, 668, 668, 668, 680, 668, 668, 668, 668, 592, 668, 668, 668, 668, 680, 668, 668, 668, 668, 592, 668, 668, 668, 668, 680, 668, 668, 668, 668, 592, 668, 668, 668, 668, 680, 668, 668, 668, 668, 592, 668, 668, 668, 668, 680, 668, 668, 668, 668, 592, 668, 668, 668, 668, 680, 668, 668, 668, 668, 717, 665, 665, 672, 673, 674, 665, 665, 721, 592, 717, 665, 665, 672, 673, 674, 665, 665, 721, 592, 717, 665, 665, 672, 673, 674, 665, 665, 721, 592, 717, 665, 665, 672, 673, 674, 665, 665, 721, 592, 717, 665, 665, 672, 673, 674, 665, 665, 721, 592, 717, 665, 665, 672, 673, 674, 665, 665, 721, 592, 717, 665, 665, 672, 673, 674, 665, 665, 721, 592, 717, 665, 665, 672, 673, 674, 665, 665, 721, 592, 717, 665, 665, 672, 673, 674, 665, 665, 721, 670, 707, 707, 711, 712, 713, 707, 707, 632, 592, 670, 707, 707, 711, 712, 713, 707, 707, 632, 592, 670, 707, 707, 711, 712, 713, 707, 707, 632, 592, 670, 707, 707, 711, 712, 713, 707, 707, 632, 592, 670, 707, 707, 711, 712, 713, 707, 707, 632, 592, 670, 707, 707, 711, 712, 713, 707, 707, 632, 592, 670, 707, 707, 711, 712, 713, 707, 707, 632, 592, 670, 707, 707, 711, 712, 713, 707, 707, 632, 592, 670, 707, 707, 711, 712, 713, 707, 707, 632, 670, 203, 203, 203, 203, 203, 203, 203, 632, 592, 670, 593, 593, 593, 593, 593, 593, 593, 632, 592, 670, 593, 593, 593, 593, 593, 593, 593, 632, 592, 670, 593, 593, 593, 593, 593, 593, 593, 632, 592, 670, 593, 593, 593, 593, 593, 593, 593, 632, 592, 670, 593, 593, 593, 593, 593, 593, 593, 632, 592, 670, 593, 593, 593, 593, 593, 593, 593, 632, 592, 670, 593, 593, 593, 593, 593, 593, 593, 632, 592, 670, 203, 203, 203, 203, 203, 203, 203, 632, 670, 203, 203, 203, 203, 203, 203, 203, 632, 592, 670, 593, 593, 593, 593, 593, 593, 593, 632, 592, 670, 593, 593, 593, 593, 593, 593, 593, 632, 592, 670, 593, 593, 593, 593, 593, 593, 593, 632, 592, 670, 593, 593, 593, 593, 593, 593, 593, 632, 592, 670, 593, 593, 593, 593, 593, 593, 593, 632, 592, 670, 593, 593, 593, 593, 593, 593, 593, 632, 592, 670, 593, 593, 593, 593, 593, 593, 593, 632, 592, 670, 203, 203, 203, 203, 203, 203, 203, 632, 670, 203, 203, 203, 203, 203, 203, 203, 632, 592, 670, 593, 593, 593, 593, 593, 593, 593, 632, 592, 670, 593, 593, 593, 593, 593, 593, 593, 632, 592, 670, 593, 593, 593, 593, 593, 593, 593, 632, 592, 670, 593, 593, 593, 593, 593, 593, 593, 632, 592, 670, 593, 593, 593, 593, 593, 593, 593, 632, 592, 670, 593, 593, 593, 593, 593, 593, 593, 632, 592, 670, 593, 593, 593, 593, 593, 593, 593, 632, 592, 670, 203, 203, 203, 203, 203, 203, 203, 632, 670, 203, 203, 203, 203, 203, 203, 203, 675, 680, 676, 593, 593, 593, 593, 593, 593, 593, 675, 680, 676, 593, 593, 593, 593, 593, 593, 593, 675, 680, 676, 593, 593, 593, 593, 593, 593, 593, 675, 680, 676, 593, 593, 593, 593, 593, 593, 593, 675, 680, 676, 593, 593, 593, 593, 593, 593, 593, 675, 680, 676, 593, 593, 593, 593, 593, 593, 593, 675, 680, 676, 593, 593, 593, 593, 593, 593, 593, 675, 680, 676, 203, 203, 203, 203, 203, 203, 203, 632, 670, 203, 203, 203, 203, 203, 203, 203, 632, 592, 670, 593, 593, 593, 593, 593, 593, 593, 632, 592, 670, 593, 593, 593, 593, 593, 593, 593, 632, 592, 670, 593, 593, 593, 593, 593, 593, 593, 632, 592, 670, 593, 593, 593, 593, 593, 593, 593, 632, 592, 670, 593, 593, 593, 593, 593, 593, 593, 632, 592, 670, 593, 593, 593, 593, 593, 593, 593, 632, 592, 670, 593, 593, 593, 593, 593, 593, 593, 632, 592, 670, 203, 203, 203, 203, 203, 203, 203, 632, 670, 203, 203, 203, 203, 203, 203, 203, 632, 592, 670, 593, 593, 593, 593, 593, 593, 593, 632, 592, 670, 593, 593, 593, 593, 593, 593, 593, 632, 592, 670, 593, 593, 593, 593, 593, 593, 593, 632, 592, 670, 593, 593, 593, 593, 593, 593, 593, 632, 592, 670, 593, 593, 593, 593, 593, 593, 593, 632, 592, 670, 593, 593, 593, 593, 593, 593, 593, 632, 592, 670, 593, 593, 593, 593, 593, 593, 593, 632, 592, 670, 203, 203, 203, 203, 203, 203, 203, 632, 670, 203, 203, 203, 203, 203, 203, 203, 632, 592, 670, 593, 593, 593, 593, 593, 593, 593, 632, 592, 670, 593, 593, 593, 593, 593, 593, 593, 632, 592, 670, 593, 593, 593, 593, 593, 593, 593, 632, 592, 670, 593, 593, 593, 593, 593, 593, 593, 632, 592, 670, 593, 593, 593, 593, 593, 593, 593, 632, 592, 670, 593, 593, 593, 593, 593, 593, 593, 632, 592, 670, 593, 593, 593, 593, 593, 593, 593, 632, 592, 670, 203, 203, 203, 203, 203, 203, 203, 632, 668, 668, 668, 668, 680, 668, 668, 668, 668, 592, 668, 668, 668, 668, 680, 668, 668, 668, 668, 592, 668, 668, 668, 668, 680, 668, 668, 668, 668, 592, 668, 668, 668, 668, 680, 668, 668, 668, 668, 592, 668, 668, 668, 668, 680, 668, 668, 668, 668, 592, 668, 668, 668, 668, 680, 668, 668, 668, 668, 592, 668, 668, 668, 668, 680, 668, 668, 668, 668, 592, 668, 668, 668, 668, 680, 668, 668, 668, 668, 592, 668, 668, 668, 668, 680, 668, 668, 668, 668, 717, 665, 665, 672, 673, 674, 665, 665, 721, 592, 717, 665, 665, 672, 673, 674, 665, 665, 721, 592, 717, 665, 665, 672, 673, 674, 665, 665, 721, 592, 717, 665, 665, 672, 673, 674, 665, 665, 721, 592, 717, 665, 665, 672, 673, 674, 665, 665, 721, 592, 717, 665, 665, 672, 673, 674, 665, 665, 721, 592, 717, 665, 665, 672, 673, 674, 665, 665, 721, 592, 717, 665, 665, 672, 673, 674, 665, 665, 721, 592, 717, 665, 665, 672, 673, 674, 665, 665, 721, 670, 707, 707, 711, 712, 713, 707, 707, 632, 592, 670, 707, 707, 711, 712, 713, 707, 707, 632, 592, 670, 707, 707, 711, 712, 713, 707, 707, 632, 592, 670, 707, 707, 711, 712, 713, 707, 707, 632, 592, 670, 707, 707, 711, 712, 713, 707, 707, 632, 592, 670, 707, 707, 711, 712, 713, 707, 707, 632, 592, 670, 707, 707, 711, 712, 713, 707, 707, 632, 592, 670, 707, 707, 711, 712, 713, 707, 707, 632, 592, 670, 707, 707, 711, 712, 713, 707, 707, 632, 670, 203, 203, 203, 203, 203, 203, 203, 632, 592, 670, 593, 593, 593, 593, 593, 593, 593, 632, 592, 670, 593, 593, 593, 593, 593, 593, 593, 632, 592, 670, 593, 593, 593, 593, 593, 593, 593, 632, 592, 670, 863, 863, 863, 863, 863, 863, 863, 632, 592, 670, 593, 593, 593, 593, 593, 593, 593, 632, 592, 670, 593, 593, 593, 593, 593, 593, 593, 632, 592, 670, 593, 593, 593, 593, 593, 593, 593, 632, 592, 670, 203, 203, 203, 203, 203, 203, 203, 632, 670, 203, 203, 203, 203, 203, 203, 203, 632, 592, 670, 593, 593, 593, 593, 593, 593, 593, 632, 592, 670, 593, 593, 593, 593, 593, 593, 593, 632, 592, 670, 593, 593, 593, 593, 593, 593, 593, 632, 592, 670, 863, 863, 863, 863, 863, 863, 863, 632, 592, 670, 593, 593, 593, 593, 593, 593, 593, 632, 592, 670, 593, 593, 593, 593, 593, 593, 593, 632, 592, 670, 593, 593, 593, 593, 593, 593, 593, 632, 592, 670, 203, 203, 203, 203, 203, 203, 203, 632, 670, 203, 203, 203, 203, 203, 203, 203, 632, 592, 670, 593, 593, 593, 593, 593, 593, 593, 632, 592, 670, 593, 593, 593, 593, 593, 593, 593, 632, 592, 670, 593, 593, 593, 593, 593, 593, 593, 632, 592, 670, 863, 863, 863, 863, 863, 863, 863, 632, 592, 670, 593, 593, 593, 593, 593, 593, 593, 632, 592, 670, 593, 593, 593, 593, 593, 593, 593, 632, 592, 670, 593, 593, 593, 593, 593, 593, 593, 632, 592, 670, 203, 203, 203, 203, 203, 203, 203, 632, 670, 203, 203, 203, 203, 203, 203, 203, 675, 680, 676, 593, 593, 593, 593, 593, 593, 593, 675, 680, 676, 593, 593, 593, 593, 593, 593, 593, 675, 680, 676, 593, 593, 593, 593, 593, 593, 593, 675, 680, 676, 863, 863, 863, 863, 863, 863, 863, 675, 680, 676, 593, 593, 593, 593, 593, 593, 593, 675, 680, 676, 593, 593, 593, 593, 593, 593, 593, 675, 680, 676, 593, 593, 593, 593, 593, 593, 593, 675, 680, 676, 203, 203, 203, 203, 203, 203, 203, 632, 670, 203, 203, 203, 203, 203, 203, 203, 632, 592, 670, 593, 593, 593, 593, 593, 593, 593, 632, 592, 670, 593, 593, 593, 593, 593, 593, 593, 632, 592, 670, 593, 593, 593, 593, 593, 593, 593, 632, 592, 670, 863, 863, 863, 863, 863, 863, 863, 632, 592, 670, 593, 593, 593, 593, 593, 593, 593, 632, 592, 670, 593, 593, 593, 593, 593, 593, 593, 632, 592, 670, 593, 593, 593, 593, 593, 593, 593, 632, 592, 670, 203, 203, 203, 203, 203, 203, 203, 632, 670, 203, 203, 203, 203, 203, 203, 203, 632, 592, 670, 593, 593, 593, 593, 593, 593, 593, 632, 592, 670, 593, 593, 593, 593, 593, 593, 593, 632, 592, 670, 593, 593, 593, 593, 593, 593, 593, 632, 592, 670, 863, 863, 863, 863, 863, 863, 863, 632, 592, 670, 593, 593, 593, 593, 593, 593, 593, 632, 592, 670, 593, 593, 593, 593, 593, 593, 593, 632, 592, 670, 593, 593, 593, 593, 593, 593, 593, 632, 592, 670, 203, 203, 203, 203, 203, 203, 203, 632, 670, 203, 203, 203, 203, 203, 203, 203, 632, 592, 670, 593, 593, 593, 593, 593, 593, 593, 632, 592, 670, 593, 593, 593, 593, 593, 593, 593, 632, 592, 670, 593, 593, 593, 593, 593, 593, 593, 632, 592, 670, 863, 863, 863, 863, 863, 863, 863, 632, 592, 670, 593, 593, 593, 593, 593, 593, 593, 632, 592, 670, 593, 593, 593, 593, 593, 593, 593, 632, 592, 670, 593, 593, 593, 593, 593, 593, 593, 632, 592, 670, 203, 203, 203, 203, 203, 203, 203, 632, 668, 668, 668, 668, 680, 668, 668, 668, 668, 592, 668, 668, 668, 668, 680, 668, 668, 668, 668, 592, 668, 668, 668, 668, 680, 668, 668, 668, 668, 592, 668, 668, 668, 668, 680, 668, 668, 668, 668, 592, 668, 668, 668, 668, 680, 668, 668, 668, 668, 592, 668, 668, 668, 668, 680, 668, 668, 668, 668, 592, 668, 668, 668, 668, 680, 668, 668, 668, 668, 592, 668, 668, 668, 668, 680, 668, 668, 668, 668, 592, 668, 668, 668, 668, 680, 668, 668, 668, 668, 717, 665, 665, 672, 673, 674, 665, 665, 721, 592, 717, 665, 665, 672, 673, 674, 665, 665, 721, 592, 717, 665, 665, 672, 673, 674, 665, 665, 721, 592, 717, 665, 665, 672, 673, 674, 665, 665, 721, 592, 717, 665, 665, 672, 673, 674, 665, 665, 721, 592, 717, 665, 665, 672, 673, 674, 665, 665, 721, 592, 717, 665, 665, 672, 673, 674, 665, 665, 721, 592, 717, 665, 665, 672, 673, 674, 665, 665, 721, 592, 717, 665, 665, 672, 673, 674, 665, 665, 721, 670, 707, 707, 711, 712, 713, 707, 707, 632, 592, 670, 707, 707, 711, 712, 713, 707, 707, 632, 592, 670, 707, 707, 711, 712, 713, 707, 707, 632, 592, 670, 707, 707, 711, 712, 713, 707, 707, 632, 592, 670, 707, 707, 711, 712, 713, 707, 707, 632, 592, 670, 707, 707, 711, 712, 713, 707, 707, 632, 592, 670, 707, 707, 711, 712, 713, 707, 707, 632, 592, 670, 707, 707, 711, 712, 713, 707, 707, 632, 592, 670, 707, 707, 711, 712, 713, 707, 707, 632, 670, 203, 203, 203, 203, 203, 203, 203, 632, 592, 670, 593, 593, 593, 593, 593, 593, 593, 632, 592, 670, 593, 593, 593, 593, 593, 593, 593, 632, 592, 670, 593, 593, 593, 593, 593, 593, 593, 632, 592, 670, 593, 593, 593, 593, 593, 593, 593, 632, 592, 670, 593, 593, 593, 593, 593, 593, 593, 632, 592, 670, 593, 593, 593, 593, 593, 593, 593, 632, 592, 670, 593, 593, 593, 593, 593, 593, 593, 632, 592, 670, 203, 203, 203, 203, 203, 203, 203, 632, 670, 203, 203, 203, 203, 203, 203, 203, 632, 592, 670, 593, 593, 593, 593, 593, 593, 593, 632, 592, 670, 593, 593, 593, 593, 593, 593, 593, 632, 592, 670, 593, 593, 593, 593, 593, 593, 593, 632, 592, 670, 593, 593, 593, 593, 593, 593, 593, 632, 592, 670, 593, 593, 593, 593, 593, 593, 593, 632, 592, 670, 593, 593, 593, 593, 593, 593, 593, 632, 592, 670, 593, 593, 593, 593, 593, 593, 593, 632, 592, 670, 203, 203, 203, 203, 203, 203, 203, 632, 670, 203, 203, 203, 203, 203, 203, 203, 632, 592, 670, 593, 593, 593, 593, 593, 593, 593, 632, 592, 670, 593, 593, 593, 593, 593, 593, 593, 632, 592, 670, 593, 593, 593, 593, 593, 593, 593, 632, 592, 670, 593, 593, 593, 593, 593, 593, 593, 632, 592, 670, 593, 593, 593, 593, 593, 593, 593, 632, 592, 670, 593, 593, 593, 593, 593, 593, 593, 632, 592, 670, 593, 593, 593, 593, 593, 593, 593, 632, 592, 670, 203, 203, 203, 203, 203, 203, 203, 632, 670, 203, 203, 203, 203, 203, 203, 203, 675, 680, 676, 593, 593, 593, 593, 593, 593, 593, 675, 680, 676, 593, 593, 593, 593, 593, 593, 593, 675, 680, 676, 593, 593, 593, 593, 593, 593, 593, 675, 680, 676, 593, 593, 593, 593, 593, 593, 593, 675, 680, 676, 593, 593, 593, 593, 593, 593, 593, 675, 680, 676, 593, 593, 593, 593, 593, 593, 593, 675, 680, 676, 593, 593, 593, 593, 593, 593, 593, 675, 680, 676, 203, 203, 203, 203, 203, 203, 203, 632, 670, 203, 203, 203, 203, 203, 203, 203, 632, 592, 670, 593, 593, 593, 593, 593, 593, 593, 632, 592, 670, 593, 593, 593, 593, 593, 593, 593, 632, 592, 670, 593, 593, 593, 593, 593, 593, 593, 632, 592, 670, 593, 593, 593, 593, 593, 593, 593, 632, 592, 670, 593, 593, 593, 593, 593, 593, 593, 632, 592, 670, 593, 593, 593, 593, 593, 593, 593, 632, 592, 670, 593, 593, 593, 593, 593, 593, 593, 632, 592, 670, 203, 203, 203, 203, 203, 203, 203, 632, 670, 203, 203, 203, 203, 203, 203, 203, 632, 592, 670, 593, 593, 593, 593, 593, 593, 593, 632, 592, 670, 593, 593, 593, 593, 593, 593, 593, 632, 592, 670, 593, 593, 593, 593, 593, 593, 593, 632, 592, 670, 593, 593, 593, 593, 593, 593, 593, 632, 592, 670, 593, 593, 593, 593, 593, 593, 593, 632, 592, 670, 593, 593, 593, 593, 593, 593, 593, 632, 592, 670, 593, 593, 593, 593, 593, 593, 593, 632, 592, 670, 203, 203, 203, 203, 203, 203, 203, 632, 670, 203, 203, 203, 203, 203, 203, 203, 632, 592, 670, 593, 593, 593, 593, 593, 593, 593, 632, 592, 670, 593, 593, 593, 593, 593, 593, 593, 632, 592, 670, 593, 593, 593, 593, 593, 593, 593, 632, 592, 670, 593, 593, 593, 593, 593, 593, 593, 632, 592, 670, 593, 593, 593, 593, 593, 593, 593, 632, 592, 670, 593, 593, 593, 593, 593, 593, 593, 632, 592, 670, 593, 593, 593, 593, 593, 593, 593, 632, 592, 670, 203, 203, 203, 203, 203, 203, 203, 632, 668, 668, 668, 668, 680, 668, 668, 668, 668, 592, 668, 668, 668, 668, 680, 668, 668, 668, 668, 592, 668, 668, 668, 668, 680, 668, 668, 668, 668, 592, 668, 668, 668, 668, 680, 668, 668, 668, 668, 592, 668, 668, 668, 668, 680, 668, 668, 668, 668, 592, 668, 668, 668, 668, 680, 668, 668, 668, 668, 592, 668, 668, 668, 668, 680, 668, 668, 668, 668, 592, 668, 668, 668, 668, 680, 668, 668, 668, 668, 592, 668, 668, 668, 668, 680, 668, 668, 668, 668, 717, 665, 665, 672, 673, 674, 665, 665, 721, 592, 717, 665, 665, 672, 673, 674, 665, 665, 721, 592, 717, 665, 665, 672, 673, 674, 665, 665, 721, 592, 717, 665, 665, 672, 673, 674, 665, 665, 721, 592, 717, 665, 665, 672, 673, 674, 665, 665, 721, 592, 717, 665, 665, 672, 673, 674, 665, 665, 721, 592, 717, 665, 665, 672, 673, 674, 665, 665, 721, 592, 717, 665, 665, 672, 673, 674, 665, 665, 721, 592, 717, 665, 665, 672, 673, 674, 665, 665, 721, 670, 707, 707, 711, 712, 713, 707, 707, 632, 592, 670, 707, 707, 711, 712, 713, 707, 707, 632, 592, 670, 707, 707, 711, 712, 713, 707, 707, 632, 592, 670, 707, 707, 711, 712, 713, 707, 707, 632, 592, 670, 707, 707, 711, 712, 713, 707, 707, 632, 592, 670, 707, 707, 711, 712, 713, 707, 707, 632, 592, 670, 707, 707, 711, 712, 713, 707, 707, 632, 592, 670, 707, 707, 711, 712, 713, 707, 707, 632, 592, 670, 707, 707, 711, 712, 713, 707, 707, 632, 670, 203, 203, 203, 203, 203, 203, 203, 632, 592, 670, 203, 203, 203, 203, 203, 203, 203, 632, 592, 670, 593, 593, 593, 593, 593, 593, 593, 632, 592, 670, 593, 593, 593, 593, 593, 593, 593, 632, 592, 670, 593, 593, 593, 593, 593, 593, 593, 632, 592, 670, 593, 593, 593, 593, 593, 593, 593, 632, 592, 670, 593, 593, 593, 593, 593, 593, 593, 632, 592, 670, 203, 203, 203, 203, 203, 203, 203, 632, 592, 670, 203, 203, 203, 203, 203, 203, 203, 632, 670, 203, 203, 203, 203, 203, 203, 203, 632, 592, 670, 203, 203, 203, 203, 203, 203, 203, 632, 592, 670, 593, 593, 593, 593, 593, 593, 593, 632, 592, 670, 593, 593, 593, 593, 593, 593, 593, 632, 592, 670, 593, 593, 593, 593, 593, 593, 593, 632, 592, 670, 593, 593, 593, 593, 593, 593, 593, 632, 592, 670, 593, 593, 593, 593, 593, 593, 593, 632, 592, 670, 203, 203, 203, 203, 203, 203, 203, 632, 592, 670, 203, 203, 203, 203, 203, 203, 203, 632, 670, 203, 203, 203, 203, 203, 203, 203, 632, 592, 670, 203, 203, 203, 203, 203, 203, 203, 632, 592, 670, 593, 593, 593, 593, 593, 593, 593, 632, 592, 670, 593, 593, 593, 593, 593, 593, 593, 632, 592, 670, 593, 593, 593, 593, 593, 593, 593, 632, 592, 670, 593, 593, 593, 593, 593, 593, 593, 632, 592, 670, 593, 593, 593, 593, 593, 593, 593, 632, 592, 670, 203, 203, 203, 203, 203, 203, 203, 632, 592, 670, 203, 203, 203, 203, 203, 203, 203, 632, 670, 203, 203, 203, 203, 203, 203, 203, 675, 680, 676, 203, 203, 203, 203, 203, 203, 203, 675, 680, 676, 593, 593, 593, 593, 593, 593, 593, 675, 680, 676, 593, 593, 593, 593, 593, 593, 593, 675, 680, 676, 593, 593, 593, 593, 593, 593, 593, 675, 680, 676, 593, 593, 593, 593, 593, 593, 593, 675, 680, 676, 593, 593, 593, 593, 593, 593, 593, 675, 680, 676, 203, 203, 203, 203, 203, 203, 203, 675, 680, 676, 203, 203, 203, 203, 203, 203, 203, 632, 670, 203, 203, 203, 203, 203, 203, 203, 632, 592, 670, 203, 203, 203, 203, 203, 203, 203, 632, 592, 670, 593, 593, 593, 593, 593, 593, 593, 632, 592, 670, 593, 593, 593, 593, 593, 593, 593, 632, 592, 670, 593, 593, 593, 593, 593, 593, 593, 632, 592, 670, 593, 593, 593, 593, 593, 593, 593, 632, 592, 670, 593, 593, 593, 593, 593, 593, 593, 632, 592, 670, 203, 203, 203, 203, 203, 203, 203, 632, 592, 670, 203, 203, 203, 203, 203, 203, 203, 632, 670, 203, 203, 203, 203, 203, 203, 203, 632, 592, 670, 203, 203, 203, 203, 203, 203, 203, 632, 592, 670, 593, 593, 593, 593, 593, 593, 593, 632, 592, 670, 593, 593, 593, 593, 593, 593, 593, 632, 592, 670, 593, 593, 593, 593, 593, 593, 593, 632, 592, 670, 593, 593, 593, 593, 593, 593, 593, 632, 592, 670, 593, 593, 593, 593, 593, 593, 593, 632, 592, 670, 203, 203, 203, 203, 203, 203, 203, 632, 592, 670, 203, 203, 203, 203, 203, 203, 203, 632, 670, 203, 203, 203, 203, 203, 203, 203, 632, 592, 670, 203, 203, 203, 203, 203, 203, 203, 632, 592, 670, 593, 593, 593, 593, 593, 593, 593, 632, 592, 670, 593, 593, 593, 593, 593, 593, 593, 632, 592, 670, 593, 593, 593, 593, 593, 593, 593, 632, 592, 670, 593, 593, 593, 593, 593, 593, 593, 632, 592, 670, 593, 593, 593, 593, 593, 593, 593, 632, 592, 670, 203, 203, 203, 203, 203, 203, 203, 632, 592, 670, 203, 203, 203, 203, 203, 203, 203, 632, 668, 668, 668, 668, 680, 668, 668, 668, 668, 592, 668, 668, 668, 668, 680, 668, 668, 668, 668, 592, 668, 668, 668, 668, 680, 668, 668, 668, 668, 592, 668, 668, 668, 668, 680, 668, 668, 668, 668, 592, 668, 668, 668, 668, 680, 668, 668, 668, 668, 592, 668, 668, 668, 668, 680, 668, 668, 668, 668, 592, 668, 668, 668, 668, 680, 668, 668, 668, 668, 592, 668, 668, 668, 668, 680, 668, 668, 668, 668, 592, 668, 668, 668, 668, 680, 668, 668, 668, 668, 717, 665, 665, 672, 673, 674, 665, 665, 721, 592, 717, 665, 665, 672, 673, 674, 665, 665, 721, 592, 717, 665, 665, 672, 673, 674, 665, 665, 721, 592, 717, 665, 665, 672, 673, 674, 665, 665, 721, 592, 717, 665, 665, 672, 673, 674, 665, 665, 721, 592, 717, 665, 665, 672, 673, 674, 665, 665, 721, 592, 717, 665, 665, 672, 673, 674, 665, 665, 721, 592, 717, 665, 665, 672, 673, 674, 665, 665, 721, 592, 717, 665, 665, 672, 673, 674, 665, 665, 721, 670, 707, 707, 711, 712, 713, 707, 707, 632, 592, 670, 707, 707, 711, 712, 713, 707, 707, 632, 592, 670, 707, 707, 711, 712, 713, 707, 707, 632, 592, 670, 707, 707, 711, 712, 713, 707, 707, 632, 592, 670, 707, 707, 711, 712, 713, 707, 707, 632, 592, 670, 707, 707, 711, 712, 713, 707, 707, 632, 592, 670, 707, 707, 711, 712, 713, 707, 707, 632, 592, 670, 707, 707, 711, 712, 713, 707, 707, 632, 592, 670, 707, 707, 711, 712, 713, 707, 707, 632, 670, 203, 203, 203, 203, 203, 203, 203, 632, 592, 670, 203, 203, 203, 203, 203, 203, 203, 632, 592, 670, 203, 203, 203, 203, 203, 203, 203, 632, 592, 670, 593, 593, 593, 593, 593, 593, 593, 632, 592, 670, 593, 593, 593, 593, 593, 593, 593, 632, 592, 670, 593, 593, 593, 593, 593, 593, 593, 632, 592, 670, 203, 203, 203, 203, 203, 203, 203, 632, 592, 670, 203, 203, 203, 203, 203, 203, 203, 632, 592, 670, 203, 203, 203, 203, 203, 203, 203, 632, 670, 203, 203, 203, 203, 203, 203, 203, 632, 592, 670, 203, 203, 203, 203, 203, 203, 203, 632, 592, 670, 203, 203, 203, 203, 203, 203, 203, 632, 592, 670, 593, 593, 593, 593, 593, 593, 593, 632, 592, 670, 593, 593, 593, 593, 593, 593, 593, 632, 592, 670, 593, 593, 593, 593, 593, 593, 593, 632, 592, 670, 203, 203, 203, 203, 203, 203, 203, 632, 592, 670, 203, 203, 203, 203, 203, 203, 203, 632, 592, 670, 203, 203, 203, 203, 203, 203, 203, 632, 670, 203, 203, 203, 203, 203, 203, 203, 632, 592, 670, 203, 203, 203, 203, 203, 203, 203, 632, 592, 670, 203, 203, 203, 203, 203, 203, 203, 632, 592, 670, 593, 593, 593, 593, 593, 593, 593, 632, 592, 670, 593, 593, 593, 593, 593, 593, 593, 632, 592, 670, 593, 593, 593, 593, 593, 593, 593, 632, 592, 670, 203, 203, 203, 203, 203, 203, 203, 632, 592, 670, 203, 203, 203, 203, 203, 203, 203, 632, 592, 670, 203, 203, 203, 203, 203, 203, 203, 632, 670, 203, 203, 203, 203, 203, 203, 203, 675, 680, 676, 203, 203, 203, 203, 203, 203, 203, 675, 680, 676, 203, 203, 203, 203, 203, 203, 203, 675, 680, 676, 593, 593, 593, 593, 593, 593, 593, 675, 680, 676, 593, 593, 593, 593, 593, 593, 593, 675, 680, 676, 593, 593, 593, 593, 593, 593, 593, 675, 680, 676, 203, 203, 203, 203, 203, 203, 203, 675, 680, 676, 203, 203, 203, 203, 203, 203, 203, 675, 680, 676, 203, 203, 203, 203, 203, 203, 203, 632, 670, 203, 203, 203, 203, 203, 203, 203, 632, 592, 670, 203, 203, 203, 203, 203, 203, 203, 632, 592, 670, 203, 203, 203, 203, 203, 203, 203, 632, 592, 670, 593, 593, 593, 593, 593, 593, 593, 632, 592, 670, 593, 593, 593, 593, 593, 593, 593, 632, 592, 670, 593, 593, 593, 593, 593, 593, 593, 632, 592, 670, 203, 203, 203, 203, 203, 203, 203, 632, 592, 670, 203, 203, 203, 203, 203, 203, 203, 632, 592, 670, 203, 203, 203, 203, 203, 203, 203, 632, 670, 203, 203, 203, 203, 203, 203, 203, 632, 592, 670, 203, 203, 203, 203, 203, 203, 203, 632, 592, 670, 203, 203, 203, 203, 203, 203, 203, 632, 592, 670, 593, 593, 593, 593, 593, 593, 593, 632, 592, 670, 593, 593, 593, 593, 593, 593, 593, 632, 592, 670, 593, 593, 593, 593, 593, 593, 593, 632, 592, 670, 203, 203, 203, 203, 203, 203, 203, 632, 592, 670, 203, 203, 203, 203, 203, 203, 203, 632, 592, 670, 203, 203, 203, 203, 203, 203, 203, 632, 670, 203, 203, 203, 203, 203, 203, 203, 632, 592, 670, 203, 203, 203, 203, 203, 203, 203, 632, 592, 670, 203, 203, 203, 203, 203, 203, 203, 632, 592, 670, 593, 593, 593, 593, 593, 593, 593, 632, 592, 670, 593, 593, 593, 593, 593, 593, 593, 632, 592, 670, 593, 593, 593, 593, 593, 593, 593, 632, 592, 670, 203, 203, 203, 203, 203, 203, 203, 632, 592, 670, 203, 203, 203, 203, 203, 203, 203, 632, 592, 670, 203, 203, 203, 203, 203, 203, 203, 632, 668, 668, 668, 668, 680, 668, 668, 668, 668, 592, 668, 668, 668, 668, 680, 668, 668, 668, 668, 592, 668, 668, 668, 668, 680, 668, 668, 668, 668, 592, 668, 668, 668, 668, 680, 668, 668, 668, 668, 592, 668, 668, 668, 668, 680, 668, 668, 668, 668, 592, 668, 668, 668, 668, 680, 668, 668, 668, 668, 592, 668, 668, 668, 668, 680, 668, 668, 668, 668, 592, 668, 668, 668, 668, 680, 668, 668, 668, 668, 592, 668, 668, 668, 668, 680, 668, 668, 668, 668, 717, 665, 665, 672, 673, 674, 665, 665, 721, 592, 717, 665, 665, 672, 673, 674, 665, 665, 721, 592, 717, 665, 665, 672, 673, 674, 665, 665, 721, 592, 717, 665, 665, 672, 673, 674, 665, 665, 721, 592, 717, 665, 665, 672, 673, 674, 665, 665, 721, 592, 717, 665, 665, 672, 673, 674, 665, 665, 721, 592, 717, 665, 665, 672, 673, 674, 665, 665, 721, 592, 717, 665, 665, 672, 673, 674, 665, 665, 721, 592, 717, 665, 665, 672, 673, 674, 665, 665, 721, 670, 707, 707, 711, 712, 713, 707, 707, 632, 592, 670, 707, 707, 711, 712, 713, 707, 707, 632, 592, 670, 707, 707, 711, 712, 713, 707, 707, 632, 592, 670, 707, 707, 711, 712, 713, 707, 707, 632, 592, 670, 707, 707, 711, 712, 713, 707, 707, 632, 592, 670, 707, 707, 711, 712, 713, 707, 707, 632, 592, 670, 707, 707, 711, 712, 713, 707, 707, 632, 592, 670, 707, 707, 711, 712, 713, 707, 707, 632, 592, 670, 707, 707, 711, 712, 713, 707, 707, 632, 670, 94, 94, 94, 94, 94, 94, 94, 632, 592, 670, 203, 203, 203, 203, 203, 203, 203, 632, 592, 670, 203, 203, 203, 203, 203, 203, 203, 632, 592, 670, 203, 203, 203, 203, 203, 203, 203, 632, 592, 670, 203, 203, 203, 203, 203, 203, 203, 632, 592, 670, 203, 203, 203, 203, 203, 203, 203, 632, 592, 670, 203, 203, 203, 203, 203, 203, 203, 632, 592, 670, 203, 203, 203, 203, 203, 203, 203, 632, 592, 670, 94, 94, 94, 94, 94, 94, 94, 632, 670, 94, 94, 94, 94, 94, 94, 94, 632, 592, 670, 203, 203, 203, 203, 203, 203, 203, 632, 592, 670, 203, 203, 203, 203, 203, 203, 203, 632, 592, 670, 203, 203, 203, 203, 203, 203, 203, 632, 592, 670, 203, 203, 203, 203, 203, 203, 203, 632, 592, 670, 203, 203, 203, 203, 203, 203, 203, 632, 592, 670, 203, 203, 203, 203, 203, 203, 203, 632, 592, 670, 203, 203, 203, 203, 203, 203, 203, 632, 592, 670, 94, 94, 94, 94, 94, 94, 94, 632, 670, 94, 94, 94, 94, 94, 94, 94, 632, 592, 670, 203, 203, 203, 203, 203, 203, 203, 632, 592, 670, 203, 203, 203, 203, 203, 203, 203, 632, 592, 670, 203, 203, 203, 203, 203, 203, 203, 632, 592, 670, 203, 203, 203, 203, 203, 203, 203, 632, 592, 670, 203, 203, 203, 203, 203, 203, 203, 632, 592, 670, 203, 203, 203, 203, 203, 203, 203, 632, 592, 670, 203, 203, 203, 203, 203, 203, 203, 632, 592, 670, 94, 94, 94, 94, 94, 94, 94, 632, 670, 94, 94, 94, 94, 94, 94, 94, 675, 680, 676, 203, 203, 203, 203, 203, 203, 203, 675, 680, 676, 203, 203, 203, 203, 203, 203, 203, 675, 680, 676, 203, 203, 203, 203, 203, 203, 203, 675, 680, 676, 203, 203, 203, 203, 203, 203, 203, 675, 680, 676, 203, 203, 203, 203, 203, 203, 203, 675, 680, 676, 203, 203, 203, 203, 203, 203, 203, 675, 680, 676, 203, 203, 203, 203, 203, 203, 203, 675, 680, 676, 94, 94, 94, 94, 94, 94, 94, 632, 670, 94, 94, 94, 94, 94, 94, 94, 632, 592, 670, 203, 203, 203, 203, 203, 203, 203, 632, 592, 670, 203, 203, 203, 203, 203, 203, 203, 632, 592, 670, 203, 203, 203, 203, 203, 203, 203, 632, 592, 670, 203, 203, 203, 203, 203, 203, 203, 632, 592, 670, 203, 203, 203, 203, 203, 203, 203, 632, 592, 670, 203, 203, 203, 203, 203, 203, 203, 632, 592, 670, 203, 203, 203, 203, 203, 203, 203, 632, 592, 670, 94, 94, 94, 94, 94, 94, 94, 632, 670, 94, 94, 94, 94, 94, 94, 94, 632, 592, 670, 203, 203, 203, 203, 203, 203, 203, 632, 592, 670, 203, 203, 203, 203, 203, 203, 203, 632, 592, 670, 203, 203, 203, 203, 203, 203, 203, 632, 592, 670, 203, 203, 203, 203, 203, 203, 203, 632, 592, 670, 203, 203, 203, 203, 203, 203, 203, 632, 592, 670, 203, 203, 203, 203, 203, 203, 203, 632, 592, 670, 203, 203, 203, 203, 203, 203, 203, 632, 592, 670, 94, 94, 94, 94, 94, 94, 94, 632, 670, 94, 94, 94, 94, 94, 94, 94, 632, 592, 670, 203, 203, 203, 203, 203, 203, 203, 632, 592, 670, 203, 203, 203, 203, 203, 203, 203, 632, 592, 670, 203, 203, 203, 203, 203, 203, 203, 632, 592, 670, 203, 203, 203, 203, 203, 203, 203, 632, 592, 670, 203, 203, 203, 203, 203, 203, 203, 632, 592, 670, 203, 203, 203, 203, 203, 203, 203, 632, 592, 670, 203, 203, 203, 203, 203, 203, 203, 632, 592, 670, 94, 94, 94, 94, 94, 94, 94, 632, 639, 668, 668, 668, 668, 668, 668, 668, 643, 592, 639, 668, 668, 668, 668, 668, 668, 668, 643, 592, 639, 668, 668, 668, 668, 668, 668, 668, 643, 668, 639, 668, 668, 668, 668, 668, 668, 668, 643, 668, 639, 668, 668, 668, 668, 668, 668, 668, 643, 668, 639, 668, 668, 668, 668, 668, 668, 668, 643, 668, 639, 668, 668, 668, 668, 668, 668, 668, 643, 668, 639, 668, 668, 668, 668, 668, 668, 668, 643, 668, 639, 668, 668, 668, 668, 668, 668, 668, 643],
         "height":91,
         "name":"layer",
         "opacity":1,
         "type":"tilelayer",
         "visible":true,
         "width":89,
         "x":0,
         "y":0
        }],
 "nextobjectid":1,
 "orientation":"orthogonal",
 "renderorder":"right-down",
 "tiledversion":"1.1.5",
 "tileheight":64,
 "tilesets":[
        {
         "columns":39,
         "firstgid":1,
         "image":"wall.png",
         "imageheight":1857,
         "imagewidth":2497,
         "margin":0,
         "name":"wall",
         "spacing":0,
         "tilecount":1131,
         "tileheight":64,
         "tilewidth":64
        }, 
        {
         "columns":12,
         "firstgid":1132,
         "image":"chest.png",
         "imageheight":512,
         "imagewidth":768,
         "margin":0,
         "name":"chest",
         "spacing":0,
         "tilecount":96,
         "tileheight":64,
         "tilewidth":64
        }],
 "tilewidth":64,
 "type":"map",
 "version":1,
 "width":89
}